{
  "name": "HIVE Ticker",
  "description": "Hive Ticker is a simple GNOME shell extension that displays HIVE price on the system status area. Price is gathered from CoinGecko API. The ticker is updated every minute and shows a panel with additional pieces of information when clicked.",
  "uuid": "hive-ticker@engrave.dev",
  "url": "https://gitlab.com/engrave/hive-ticker-gnome-extension",
  "shell-version": ["3.28", "3.34"],
  "version": 3
}
